<?xml version="1.0" encoding="UTF-8" standalone="no"?>
<svg
   xmlns:dc="http://purl.org/dc/elements/1.1/"
   xmlns:cc="http://creativecommons.org/ns#"
   xmlns:rdf="http://www.w3.org/1999/02/22-rdf-syntax-ns#"
   xmlns:svg="http://www.w3.org/2000/svg"
   xmlns="http://www.w3.org/2000/svg"
   xmlns:sodipodi="http://sodipodi.sourceforge.net/DTD/sodipodi-0.dtd"
   xmlns:inkscape="http://www.inkscape.org/namespaces/inkscape"
   id="Layer_1"
   data-name="Layer 1"
   viewBox="0 0 450 450"
   version="1.1"
   inkscape:version="0.91 r13725"
   sodipodi:docname="gitlab.svg"
   width="450"
   height="450">
  <metadata
     id="metadata26">
    <rdf:RDF>
      <cc:Work
         rdf:about="">
        <dc:format>image/svg+xml</dc:format>
        <dc:type
           rdf:resource="http://purl.org/dc/dcmitype/StillImage" />
        <dc:title>stacked_wm_grayscale</dc:title>
      </cc:Work>
    </rdf:RDF>
  </metadata>
  <sodipodi:namedview
     pagecolor="#ffffff"
     bordercolor="#666666"
     borderopacity="1"
     objecttolerance="10"
     gridtolerance="10"
     guidetolerance="10"
     inkscape:pageopacity="0"
     inkscape:pageshadow="2"
     inkscape:window-width="1920"
     inkscape:window-height="1029"
     id="namedview24"
     showgrid="false"
     inkscape:zoom="1.3841642"
     inkscape:cx="254.72864"
     inkscape:cy="104.55463"
     inkscape:window-x="0"
     inkscape:window-y="0"
     inkscape:window-maximized="1"
     inkscape:current-layer="Layer_1" />
  <defs
     id="defs3">
    <style
       id="style5">.cls-1{fill:#5c5c5c;}.cls-2{fill:#a1a1a1;}.cls-3{fill:#787878;}</style>
  </defs>
  <title
     id="title7">stacked_wm_grayscale</title>
  <path
     style="fill:#5c5c5c"
     inkscape:connector-curvature="0"
     id="path26"
     class="cls-1"
     d="M 448.32,382.19" />
  <path
     style="fill:#5c5c5c"
     inkscape:connector-curvature="0"
     id="path50"
     class="cls-1"
     d="m 224.39656,422.87588 0,0 79.12001,-243.47 -158.24001,0 79.12,243.47 0,0 z" />
  <path
     style="fill:#787878"
     inkscape:connector-curvature="0"
     id="path58"
     class="cls-3"
     d="m 224.39656,422.87588 -79.12,-243.47 -110.879995,0 189.999995,243.47 0,0 z" />
  <path
     style="fill:#a1a1a1"
     inkscape:connector-curvature="0"
     id="path66"
     class="cls-2"
     d="m 34.396565,179.40588 0,0 -24,74 a 16.37,16.37 0 0 0 6,18.31 l 207.999995,151.16 -189.999995,-243.47 0,0 z" />
  <path
     style="fill:#787878"
     inkscape:connector-curvature="0"
     id="path78"
     class="cls-3"
     d="m 224.39656,422.87588 79.12001,-243.47 110.87999,0 -190,243.47 0,0 z" />
  <path
     style="fill:#5c5c5c"
     inkscape:connector-curvature="0"
     id="path86"
     class="cls-1"
     d="m 414.14113,179.40588 -110.87999,0 47.65999,-146.62 a 8.19,8.19 0 0 1 15.58,0 l 47.64,146.62 0,0 z" />
  <path
     d="m 414.15851,179.70514 0,0 24,74 a 16.37,16.37 0 0 1 -6,18.31 l -208,151.16 190,-243.47 0,0 z"
     class="cls-2"
     id="path4163"
     inkscape:connector-curvature="0"
     style="fill:#a1a1a1" />
  <path
     d="m 34.494862,179.40588 110.879978,0 -47.659978,-146.62 a 8.19,8.19 0 0 0 -15.58,0 l -47.64,146.62 0,0 z"
     class="cls-1"
     id="path4203"
     inkscape:connector-curvature="0"
     style="fill:#5c5c5c" />
</svg>
