<?xml version="1.0" encoding="UTF-8" standalone="no"?>
<!-- Created with Inkscape (http://www.inkscape.org/) -->

<svg
   xmlns:dc="http://purl.org/dc/elements/1.1/"
   xmlns:cc="http://creativecommons.org/ns#"
   xmlns:rdf="http://www.w3.org/1999/02/22-rdf-syntax-ns#"
   xmlns:svg="http://www.w3.org/2000/svg"
   xmlns="http://www.w3.org/2000/svg"
   xmlns:sodipodi="http://sodipodi.sourceforge.net/DTD/sodipodi-0.dtd"
   xmlns:inkscape="http://www.inkscape.org/namespaces/inkscape"
   width="300mm"
   height="300mm"
   viewBox="0 0 1062.9921 1062.9921"
   id="svg2"
   version="1.1"
   inkscape:version="0.91 r13725"
   sodipodi:docname="pack.svg">
  <defs
     id="defs4" />
  <sodipodi:namedview
     id="base"
     pagecolor="#4f3636"
     bordercolor="#666666"
     borderopacity="1.0"
     inkscape:pageopacity="0"
     inkscape:pageshadow="2"
     inkscape:zoom="0.49497475"
     inkscape:cx="64.327636"
     inkscape:cy="671.94341"
     inkscape:document-units="px"
     inkscape:current-layer="layer1"
     showgrid="false"
     inkscape:window-width="1920"
     inkscape:window-height="1031"
     inkscape:window-x="0"
     inkscape:window-y="0"
     inkscape:window-maximized="1" />
  <metadata
     id="metadata7">
    <rdf:RDF>
      <cc:Work
         rdf:about="">
        <dc:format>image/svg+xml</dc:format>
        <dc:type
           rdf:resource="http://purl.org/dc/dcmitype/StillImage" />
        <dc:title />
      </cc:Work>
    </rdf:RDF>
  </metadata>
  <g
     inkscape:label="Layer 1"
     inkscape:groupmode="layer"
     id="layer1"
     transform="translate(0,10.629921)">
    <circle
       style="opacity:0.2;fill:#ffffff;fill-opacity:1"
       id="path3402"
       cx="531.49603"
       cy="520.86615"
       r="500" />
    <circle
       cy="520.86615"
       cx="531.49603"
       id="circle3404"
       style="opacity:1;fill:#fdfdfd;fill-opacity:1"
       r="450" />
    <g
       id="g10046">
      <path
         inkscape:connector-curvature="0"
         id="rect4136"
         d="M 537.25392,198.28282 180.67853,338.76823 313.10572,393.61923 664.74564,251.08767 537.25392,198.28282 Z M 730.84574,278.46615 379.40038,421.07555 528.44987,482.81092 885.02201,342.32551 730.84574,278.46615 Z"
         style="opacity:1;fill:#000000;fill-opacity:0.87843138" />
      <path
         sodipodi:nodetypes="cccccccssssssccscssssssssssssssssssssssssssssccsssssscssccsssssssssssccscsscsccccccssccssccssccssssssssssssssssscccsssssssssssscsssccsssssccccccccsssscsssssccccsscccsssssccsssssscssssssssccccc"
         inkscape:connector-curvature="0"
         id="rect4154"
         d="m 177.59468,342.39685 -2.37183,342.38839 350.20803,158.66422 -0.38542,-356.80237 -146.52063,-60.97332 0.79124,127.76088 -0.66152,-0.28212 c -0.0931,0.14361 -0.21078,0.27941 -0.21078,0.44424 0,0.1398 0.15856,-0.29508 0.29832,-0.29508 0.0988,0 0.0699,0.22518 0,0.29508 -0.0699,0.0699 -0.22842,-0.0699 -0.29832,0 -0.0699,0.0699 0.0699,0.2252 0,0.2951 -0.0699,0.0699 -0.2252,-0.0699 -0.2951,0 -0.0699,0.0699 0.0699,0.22844 0,0.29834 -0.17718,0.17712 -0.59341,-0.32187 -0.59341,0.29508 0.0699,-0.0699 0.29508,-0.0988 0.29508,0 0,0.0988 -0.29508,0.0988 -0.29508,0 -0.0699,0.0699 0.0699,0.22844 0,0.29834 -0.1398,0.13979 -0.45363,-0.1398 -0.59342,0 -0.0699,0.0699 0.0699,0.22518 0,0.29508 -0.0699,0.0699 -0.2252,-0.0699 -0.2951,0 -0.0699,0.0699 0.0699,0.22844 0,0.29834 -0.0699,0.0699 -0.22842,-0.0699 -0.29832,0 -0.0699,0.0699 0.0699,0.22518 0,0.29508 -0.1398,0.13979 -0.45364,-0.1398 -0.59344,0 -0.0699,0.0699 0.0699,0.2252 0,0.2951 -0.0714,0.0714 -1.11221,-0.0714 -1.1836,0 -0.0699,0.0699 0.0699,0.22844 0,0.29833 -0.0699,0.0699 -0.19953,0 -0.29832,0 l -1.48194,0 c -0.0988,0 -0.2252,-0.0699 -0.2951,0 -0.0699,0.0699 0.0699,0.22519 0,0.29509 -0.0133,0.0133 -1.34212,0 -1.48192,0 l -1.48519,0 c -0.0988,0 -0.22518,0.0699 -0.29508,0 -0.0699,-0.0699 0.0699,-0.22519 0,-0.29509 -0.0699,-0.0699 -0.22518,0.0699 -0.29508,0 -0.0699,-0.0699 0.0699,-0.22843 0,-0.29833 -0.0699,-0.0699 -0.22844,0.0699 -0.29834,0 -0.0699,-0.0699 0.0699,-0.2252 0,-0.2951 -0.0699,-0.0699 -0.2252,0.0699 -0.2951,0 -0.0699,-0.0699 0.0699,-0.22519 0,-0.29508 -0.13979,-0.1398 -0.45362,0.13979 -0.59342,0 -0.0699,-0.0699 0.0699,-0.22844 0,-0.29834 -0.13979,-0.1398 -0.45362,0.1398 -0.59342,0 -0.0699,-0.0699 0.0442,-0.20676 0,-0.29508 -0.0624,-0.12502 -0.23265,-0.17332 -0.29508,-0.29834 -0.0883,-0.17679 0.1398,-0.45362 0,-0.59342 -0.0699,-0.0699 -0.22844,0.0699 -0.29833,0 -0.14827,-0.14826 0.14826,-0.74025 0,-0.88852 -0.0699,-0.0699 -0.22521,0.0699 -0.2951,0 -0.1398,-0.13979 0.13979,-0.45362 0,-0.59342 -0.1398,-0.13979 -0.45363,0.1398 -0.59342,0 -0.0699,-0.0699 0,-0.19629 0,-0.29508 -0.0988,0 -0.22844,0.0699 -0.29834,0 -0.0699,-0.0699 0.0699,-0.22844 0,-0.29834 -0.0606,-0.0606 -0.77095,0.0588 -0.8885,0 -0.12502,-0.0624 -0.17008,-0.23267 -0.2951,-0.29509 -0.0901,-0.0452 -0.75827,0 -0.89176,0 -0.79061,0 0.10029,0.10028 -0.29508,-0.29509 -0.13979,-0.13979 -0.45362,0.1398 -0.59342,0 -0.0699,-0.0699 0.0699,-0.22844 0,-0.29833 -0.14826,-0.14827 -0.74025,0.14826 -0.88852,0 -0.0699,-0.0699 0.0699,-0.22519 0,-0.29509 -0.01,-0.01 -0.81661,0 -0.8885,0 -0.0988,0 -0.22844,-0.0699 -0.29833,0 -0.0699,0.0699 0.0699,0.22519 0,0.29509 -0.0116,0.0116 -1.07794,0 -1.18686,0 l -2.07535,0 c -0.13349,0 -0.79835,0.0452 -0.88851,0 -0.12502,-0.0624 -0.17008,-0.23266 -0.29509,-0.29509 -0.11755,-0.0588 -0.83116,0.0606 -0.89176,0 -0.0699,-0.0699 0.0699,-0.22843 0,-0.29833 -0.19799,-0.19801 -0.39218,0.19799 -0.59017,0 -0.0699,-0.0699 0.0699,-0.22519 0,-0.29508 -0.0699,-0.0699 -0.21,0.0442 -0.29833,0 -0.12502,-0.0624 -0.19631,-0.19955 -0.2951,-0.29834 -0.0988,-0.0988 -0.23573,-0.17008 -0.29832,-0.2951 -0.0442,-0.0883 0.0442,-0.20676 0,-0.29508 -0.11323,-0.22648 -0.82161,-0.691 -0.88852,-0.89176 -0.0626,-0.18751 0.0626,-0.4059 0,-0.59342 -0.0442,-0.13265 -0.25092,-0.16237 -0.29508,-0.2951 -0.0624,-0.18751 0.0883,-0.41663 0,-0.59342 -0.0442,-0.0883 -0.22844,0.0699 -0.29834,0 -0.13979,-0.13979 0.1398,-0.45362 0,-0.59341 -0.0812,-0.0812 -1.02597,0.0804 -1.18685,0 -0.12502,-0.0624 -0.17007,-0.23266 -0.29509,-0.29509 -0.16088,-0.0804 -1.10565,0.0812 -1.18683,0 -0.0699,-0.0699 0.0699,-0.22844 0,-0.29833 -0.1041,-0.1041 -1.27716,0.10244 -1.48194,0 -0.12502,-0.0624 -0.17008,-0.23268 -0.2951,-0.2951 -0.17679,-0.0883 -0.45362,0.13979 -0.59342,0 -0.0699,-0.0699 0.0699,-0.22519 0,-0.29509 -0.0699,-0.0699 -0.21001,0.0442 -0.29834,0 -0.12502,-0.0624 -0.17006,-0.23574 -0.29508,-0.29833 -0.0883,-0.0442 -0.22518,0.0699 -0.29508,0 -0.0699,-0.0699 0.0699,-0.22519 0,-0.29508 -0.14826,-0.14827 -0.74349,0.14826 -0.89176,0 -0.0699,-0.0699 0.0699,-0.22844 0,-0.29834 -0.01,-0.01 -0.81662,0 -0.88851,0 -0.0988,0 -0.22519,-0.0699 -0.29509,0 -0.0699,0.0699 0.0699,0.22844 0,0.29834 -0.0699,0.0699 -0.22844,-0.0699 -0.29833,0 -0.1398,0.13979 0.13979,0.45362 0,0.59341 -0.0699,0.0699 -0.2252,-0.0699 -0.2951,0 -0.0699,0.0699 0.0699,0.22519 0,0.29509 -0.0297,0.0297 -0.86204,0.0297 -0.89176,0 -0.0699,-0.0699 0.0699,-0.22519 0,-0.29509 -0.0699,-0.0699 -0.22518,0.0699 -0.29508,0 -0.1398,-0.13979 0.1398,-0.45362 0,-0.59341 -0.0699,-0.0699 -0.22518,-0.0699 -0.29508,0 -0.0699,0.0699 0.0699,0.22518 0,0.29508 -0.1398,0.13979 -0.45364,-0.1398 -0.59344,0 -0.39528,0.39526 0.49231,0.29833 -0.29832,0.29833 -0.12502,0.0626 -0.17008,0.23266 -0.2951,0.29509 -0.17678,0.0883 -0.45362,-0.1398 -0.59342,0 -0.0699,0.0699 0.0699,0.2252 0,0.2951 -0.01,0.01 -0.81662,0 -0.88851,0 -0.0988,0 -0.22843,0.0699 -0.29832,0 -0.0699,-0.0699 0.0699,-0.2252 0,-0.2951 -0.0699,-0.0699 -0.22521,0.0699 -0.2951,0 -0.0699,-0.0699 0.0699,-0.22519 0,-0.29509 -0.0699,-0.0699 -0.21001,0.0442 -0.29834,0 -0.35577,-0.17788 -0.53274,-0.71387 -0.8885,-0.89175 -0.0883,-0.0442 -0.2252,0.0699 -0.2951,0 -0.0699,-0.0699 0.0699,-0.22519 0,-0.29508 -0.0699,-0.0699 -0.19953,0 -0.29832,0 l -0.2951,0 -1.78026,0 c -0.0988,0 -0.2252,0.0699 -0.2951,0 -0.0699,-0.0699 0.0699,-0.22844 0,-0.29834 -0.0606,-0.0606 -0.77095,0.0588 -0.8885,0 -0.12502,-0.0624 -0.17331,-0.23267 -0.29833,-0.2951 -0.16089,-0.0804 -1.10567,0.0812 -1.18686,0 -0.0699,-0.0699 0.0699,-0.22518 0,-0.29508 -0.14826,-0.14826 -0.74024,0.14826 -0.8885,0 -0.0699,-0.0699 0.0699,-0.22844 0,-0.29834 -0.0714,-0.0714 -1.11546,0.0714 -1.18686,0 -0.0699,-0.0699 0.0442,-0.20675 0,-0.29508 -0.0624,-0.12502 -0.23249,-0.17332 -0.29508,-0.29834 -0.0442,-0.0883 0.0442,-0.20675 0,-0.29508 -0.0626,-0.12502 -0.19629,-0.19955 -0.29508,-0.29834 0,-0.0988 0.0442,-0.20677 0,-0.2951 -0.0626,-0.12501 -0.23591,-0.17006 -0.29834,-0.29508 -0.0883,-0.17678 0.0883,-0.41663 0,-0.59342 -0.0626,-0.12502 -0.23267,-0.17331 -0.2951,-0.29833 -0.0588,-0.11755 0.0606,-0.82792 0,-0.88852 -0.0699,-0.0699 -0.22842,0.0699 -0.29832,0 -0.0699,-0.0699 0.0699,-0.22519 0,-0.29508 -0.01,-0.01 -0.81662,0 -0.88851,0 -0.79062,0 0.10028,0.097 -0.29509,-0.29834 -0.01,-0.01 -0.81986,0 -0.89175,0 -0.10892,0 -1.17198,0.0116 -1.1836,0 -0.0699,-0.0699 0.0699,-0.22518 0,-0.29508 -0.1398,-0.1398 -0.45364,0.13979 -0.59344,0 -0.0699,-0.0699 0.0699,-0.22844 0,-0.29834 -0.0699,-0.0699 -0.22842,0.0699 -0.29832,0 -0.39526,-0.39528 0.49551,-0.29508 -0.2951,-0.29508 -0.0812,-0.0812 0.0804,-1.02598 0,-1.18686 -0.0624,-0.12502 -0.23591,-0.17006 -0.29833,-0.29508 -0.0452,-0.0901 0,-0.75827 0,-0.89175 l 0,-1.77702 c 0,-0.29648 0.0938,-0.60725 0,-0.88852 -0.0442,-0.13266 -0.23249,-0.17332 -0.29509,-0.29834 -0.0505,-0.10111 -0.0239,-0.8014 -0.01,-1.1836 -0.0712,0.0578 -0.19018,-0.003 -0.28535,-0.003 -0.1398,0 -1.47191,-0.0133 -1.48519,0 -0.0699,0.0699 0.0699,0.22844 0,0.29834 -0.0116,0.0116 -1.07469,0 -1.1836,0 l -3.85562,0 c -0.20622,0 -1.37468,0.0536 -1.48193,0 -0.12502,-0.0624 -0.17007,-0.23575 -0.29509,-0.29834 -0.11754,-0.0588 -0.83115,0.0606 -0.89175,0 -0.0918,-0.0918 0.0918,-1.39012 0,-1.48194 -0.14827,-0.14826 -0.74026,0.14827 -0.88852,0 -0.0699,-0.0699 0.0699,-0.22518 0,-0.29508 -0.0699,-0.0699 -0.22518,0.0699 -0.29508,0 -0.0699,-0.0699 0,-0.19955 0,-0.29834 l 0,-1.48193 0,-0.29509 c 0,-0.0988 -0.0699,-0.22843 0,-0.29833 0.0699,-0.0699 0.22518,0.0699 0.29508,0 0.0714,-0.0714 -0.0714,-1.11221 0,-1.1836 0.0699,-0.0699 0.22518,0.0699 0.29508,0 0.14827,-0.14827 -0.14826,-0.7435 0,-0.89176 0.0699,-0.0699 0.22844,0.0699 0.29834,0 0.0699,-0.0699 0,-0.19631 0,-0.2951 0,-0.65837 -0.005,-1.07556 0.2951,-1.78026 l 0.39885,0.16537 -1.53706,-124.4241 -135.37484,-56.10596 z"
         style="opacity:1;fill:#000000;fill-opacity:0.87843138" />
      <path
         style="opacity:1;fill:#000000;fill-opacity:0.87843138"
         d="M 887.76928,346.06578 531.72983,486.61306 531.83775,842.96535 887.76928,668.05453 Z"
         id="path4159"
         inkscape:connector-curvature="0"
         sodipodi:nodetypes="ccccc" />
    </g>
  </g>
</svg>
